0 0 0 main 0 0
100 620 828 main 1 101 199 198 120
199 620 764 main 1 100 299
198 620 908 main 1 100
101 540 828 main 1 100 102
102 512 828 main 1 101 103 120
103 620 828 main 1 102 104
104 460 828 main 1 103 105
105 440 828 main 1 104 106
106 418 828 main 1 105 107
107 372 828 main 1 106 108
108 372 792 main 1 107 109 148
148 352 792 main 1 108 258
109 372 757 main 1 108 110
110 372 724 main 1 109 111
111 372 682 main 1 110 112
112 372 649 main 1 111 113
113 372 613 main 1 112 276 150
114 372 544 main 1 115 150
115 372 510 main 1 114 116
116 372 476 main 1 115 117
117 372 438 main 1 116 118
118 372 394 main 1 117 119
119 324 394 main 1 118
120 718 828 main 1 121 100 102
121 718 828 main 1 120 122
122 752 828 main 1 121 123 146
123 788 828 main 1 122 124
124 815 828 main 1 123 125
125 815 828 main 1 124 126
126 855 828 main 1 125 127
127 894 828 main 1 126 128
128 936 828 main 1 127 129
129 980 828 main 1 128 130 132
132 980 870 main 1 129 151
130 1016 828 main 1 129 131
131 1024 828 main 1 130
133 752 406 main 1 134
134 752 406 main 1 133 135
135 752 406 main 1 134 136
136 752 434 main 1 135 137
137 752 458 main 1 136 138
138 752 494 main 1 137 139 147
147 718 494 main 1 138 205
139 752 535 main 1 138 140
140 752 568 main 1 139 141
141 752 600 main 1 140 142
142 752 640 main 1 141 143
143 752 672 main 1 142 144
144 752 706 main 1 143 145
145 752 740 main 1 144 146
146 752 781 main 1 145 122
201 752 406 main 2 202
202 752 434 main 2 201 203
203 752 460 main 2 202 204
204 752 494 main 2 203 205 206
205 718 494 main 2 204 147 333
206 752 536 main 2 204 207
207 752 566 main 2 206 208
208 752 600 main 2 207 209
209 752 638 main 2 208 210
210 752 672 main 2 209 211
211 752 712 main 2 210 212
212 752 751 main 2 211 213
213 752 772 main 2 212 215
215 752 830 main 2 214 216 213
214 742 830 main 2 215 200
216 786 830 main 2 215 263
263 815 830 main 2 216 219 217
219 850 830 main 2 263 220
220 894 830 main 2 219 221
221 940 830 main 2 220 222
222 980 830 main 2 221 223
223 1024 830 main 2 222 224
224 1064 830 main 2 223 225
225 1110 830 main 2 224 226
226 1154 830 main 2 225 227
227 1210 830 main 2 226 228
228 1258 830 main 2 227 229 259
229 1258 802 main 2 228 153
259 1258 877 main 2 228 874
217 815 878 main 2 218 263
218 815 911 main 2 217 264
264 815 945 main 2 218 265
265 815 980 main 2 264 266
266 815 1016 main 2 265 267
267 815 1048 main 2 266 268
268 815 1076 main 2 269 267
269 815 1114 main 2 270 271 268
270 815 1150 main 2 269
271 800 1114 main 2 269 388
299 620 764 main 2 200 199 399
200 620 830 main 2 214 299 230
230 510 830 main 2 200 231
231 498 830 main 2 230 232
232 438 830 main 2 231 260 233
233 438 872 main 2 232 234
234 438 900 main 2 233 235
235 438 930 main 2 234 236
236 438 952 main 2 235 237
237 438 984 main 2 236 238
238 438 1013 main 2 237 239
239 438 1038 main 2 238 240
240 438 1064 main 2 239 241
241 438 1096 main 2 240 242
242 438 1128 main 2 241 273 243
273 410 1128 main 2 242 387
243 438 1156 main 2 242 244
244 438 1182 main 2 243 245
245 438 1182 main 2 244 246
246 438 1208 main 2 245 247
247 388 1208 main 2 246 248
248 388 1208 main 2 247 249
249 336 1208 main 2 250 248
250 283 1208 main 2 249 251
251 233 1208 main 2 250 252
252 180 1208 main 2 251 253
253 134 1208 main 2 252 254
254 134 1150 main 2 253 255
255 134 1105 main 2 254 256
256 134 1064 main 2 255 257 272
257 128 1064 main 2 256 341
272 134 1064 main 2 256
260 438 830 main 2 232 261
261 373 830 main 2 260 262 277
258 352 795 main 2 148 340 277
262 283 830 main 2 261 274
274 240 830 main 2 262
275 373 612 main 2 276 277
276 420 612 main 2 275 113
301 976 1184 main 3 302
302 976 1225 main 3 301 303
303 964 1225 main 3 302 304
304 910 1225 main 3 303 305
305 860 1225 main 3 304 386
306 814 1205 main 3 386 307
307 814 1150 main 3 306 308
308 814 1116 main 3 307 309 388
388 786 1116 main 3 308 271 428
309 814 1076 main 3 308 310
310 814 1044 main 3 309 311
311 814 1020 main 3 310 312
312 814 994 main 3 311 313
313 814 962 main 3 312 314
314 814 936 main 3 313 315
315 814 900 main 3 314 316
316 814 866 main 3 315 317
317 814 830 main 3 316 318
318 780 830 main 3 317 319
319 756 830 main 3 318 320
320 756 800 main 3 319 321 300
321 756 760 main 3 320 322
322 756 723 main 3 321 323
323 756 684 main 3 322 324
324 756 642 main 3 323 325
325 756 618 main 3 324 326
326 756 594 main 3 325 327
327 756 555 main 3 326 328
328 756 534 main 3 327 329
329 756 492 main 3 328 330 333
333 720 492 main 3 329 205 427
330 756 462 main 3 329 331
331 756 424 main 3 330 332
332 756 400 main 3 331
300 620 800 main 3 320 399 334
399 620 764 main 3 300 299 499
334 514 800 main 3 300 335
335 514 840 main 3 334 336
336 472 840 main 3 335 365
341 100 1064 main 3 342 257 457
342 132 1064 main 3 341 343
343 132 1108 main 3 342 344
344 132 1208 main 3 343 345
345 132 1208 main 3 344 346
346 182 1208 main 3 345 347
347 222 1208 main 3 346 348
348 262 1208 main 3 347 349
349 300 1208 main 3 348 350
350 350 1208 main 3 349 351
351 400 1208 main 3 350 352
352 444 1208 main 3 351 354
354 444 1181 main 3 352 355
355 444 1181 main 3 354 356
356 444 1181 main 3 355 357
357 444 1130 main 3 356 358 387
358 444 1094 main 3 357 359
359 444 1051 main 3 358 360
360 444 1015 main 3 359 361
361 444 976 main 3 360 362
362 444 943 main 3 361 363
363 444 908 main 3 362 364
364 444 871 main 3 363 365
365 444 840 main 3 364 366 336
366 414 840 main 3 365 367
367 375 840 main 3 366 368 337
337 294 840 main 3 367 338
338 265 840 main 3 337
368 375 794 main 3 367 369 339
339 350 794 main 3 368 340
340 350 794 main 3 339 258 448
369 375 753 main 3 368 370
370 375 730 main 3 369 371
371 375 687 main 3 370 372
372 375 647 main 3 371 373
373 375 607 main 3 372 374
374 375 558 main 3 373 375
375 375 516 main 3 374 376
376 375 491 main 3 375 377
377 375 466 main 3 376 378
378 375 420 main 3 377 379
379 340 420 main 3 378 380
380 307 420 main 3 379 381
381 275 420 main 3 380 382
382 243 420 main 3 381 383
383 210 420 main 3 382 384
384 176 420 main 3 383 385
385 176 420 main 3 384
386 860 1204 main 3 305 306
387 420 1130 main 3 357 273 445
401 755 440 main 4 402
402 755 460 main 4 401 403
403 755 494 main 4 402 404 427
427 725 494 main 4 403 333
404 755 533 main 4 403 405
405 755 573 main 4 404 406
406 755 611 main 4 405 407
407 755 648 main 4 406 408
408 755 685 main 4 407 409
409 755 724 main 4 408 410
410 755 760 main 4 409 411
411 755 800 main 4 410 412 400
412 755 835 main 4 411 413
413 784 835 main 4 412 414
414 818 835 main 4 413 415
415 818 867 main 4 414 416
416 818 895 main 4 415 417
417 818 928 main 4 416 418
418 818 964 main 4 417 419
419 818 990 main 4 418 420
420 818 1011 main 4 419 421
421 818 1036 main 4 420 422
422 818 1060 main 4 421 423
423 818 1080 main 4 422 424
424 818 1116 main 4 423 425 428
428 786 1116 main 4 424 388
425 818 1148 main 4 424 426
426 818 1173 main 4 425
400 620 800 main 4 411 499 429
499 620 764 main 4 400 399
429 517 800 main 4 400 430
430 517 839 main 4 429 431
431 475 839 main 4 430 432
432 442 839 main 4 431 433 446
433 442 875 main 4 432 434
434 442 916 main 4 433 435
435 442 960 main 4 434 436
436 442 992 main 4 435 437
437 442 1019 main 4 436 438
438 442 1049 main 4 437 439
439 442 1094 main 4 438 440
440 442 1130 main 4 439 441 445
445 415 1130 main 4 440 387
441 442 1160 main 4 440 442
442 442 1178 main 4 441 443
443 442 1203 main 4 442 444
444 442 1216 main 4 443
446 375 839 main 4 432 449 447
447 375 795 main 4 446 448
448 340 795 main 4 447 340
449 270 839 main 4 446
450 135 860 main 4 451
451 135 905 main 4 450 452
452 135 982 main 4 451 453
453 135 1063 main 4 452 454 457
457 100 1064 main 4 453 341
454 135 1117 main 4 453 455
455 135 1160 main 4 454 456
456 135 1185 main 4 455
150 372 579 main 1 113 114
600 155 491 i 6 601 614
601 155 460 i 6 600 602
602 196 460 i 6 601 603
603 239 460 i 6 604 602
604 276 460 i 6 603
605 332 460 i 6 606
606 369 460 i 6 607 605
607 413 460 i 6 608 606 613
608 437 460 i 6 609 607
609 461 460 i 6 610 608
610 480 460 i 6 611 609
611 501 460 i 6 610
613 413 429 i 6 607 612
612 443 429 i 6 613 628
614 115 491 i 6 600 615
615 115 491 i 5 616 614 644
616 152 490 i 5 615 617
617 152 459 i 5 616 618
618 204 459 i 5 617 619
619 254 459 i 5 618 621
621 308 459 i 5 619 622
622 351 459 i 5 621 623
623 413 459 i 5 622 624 627
624 436 459 i 5 623 625
625 477 459 i 5 624 626
626 499 459 i 5 625
627 413 429 i 5 623 628
628 443 429 i 5 627 612 629
629 443 429 i 4 630 628 660
630 413 429 i 4 634 629
631 500 459 i 4 632
632 472 459 i 4 631 633
633 438 459 i 4 632 634
634 413 459 i 4 633 635 630
635 375 460 i 4 634 636
636 330 459 i 4 635 637
637 291 459 i 4 636 638
638 262 459 i 4 637 639
639 227 459 i 4 638 640
640 182 459 i 4 639 641
641 155 459 i 4 640 642 643
642 144 459 i 4 641
643 155 491 i 4 641 644
644 115 491 i 4 643 615 645
645 115 491 i 3 644 646 668
646 154 491 i 3 645 648
647 133 460 i 3 648
648 154 460 i 3 647 649 646
649 170 460 i 3 648 650
650 209 460 i 3 649 651
651 250 460 i 3 650 652
652 290 460 i 3 651 653
653 329 460 i 3 652 654
654 371 460 i 3 653 655
655 410 460 i 3 654 656 659
656 437 460 i 3 655 657
657 477 460 i 3 656 658
658 500 460 i 3 657
659 410 429 i 3 655 660
660 443 429 i 3 629 659 661
661 443 429 i 2 662 660 697
662 412 429 i 2 661 663
663 412 460 i 2 662 664 677
664 430 460 i 2 663 665
665 464 460 i 2 664 666
666 479 460 i 2 665 667
667 499 460 i 2 666
668 115 491 i 2 669 670 645 693
669 115 562 i 2 668
670 153 491 i 2 668 671
671 154 460 i 2 672 670 678
672 194 460 i 2 671 673
673 233 460 i 2 674 672
674 274 460 i 2 673 675
675 309 460 i 2 676 674
676 342 460 i 2 677 675
677 383 460 i 2 663 676 690
678 115 460 i 2 671 679
679 115 340 i 2 678 680 696
680 115 221 i 2 679 681
681 115 158 i 2 680 682
682 115 158 i 2 681 683
683 163 158 i 2 682 684
684 212 158 i 2 683 685
685 232 158 i 2 686 684 691
686 290 158 i 2 687 685
687 344 158 i 2 688 686
688 383 158 i 2 687 689
689 383 218 i 2 690 688
690 383 248 i 2 677 689
691 232 120 i 2 685 692
692 270 120 i 2 691 695
693 115 492 i 1 668 694 698
694 115 562 i 1 693 873
695 270 120 i 1 692 715
696 115 340 i 1 679 700 701
697 443 429 i 1 661 709
698 158 492 i 1 693 699
699 158 461 i 1 698 700 714
700 115 461 i 1 696 699
701 115 247 i 1 696 702
702 115 220 i 1 701 703
703 115 156 i 1 702 704
704 153 156 i 1 703 705
705 233 156 i 1 704 706 715
706 263 156 i 1 705 707
707 307 156 i 1 706 708
708 383 156 i 1 707 709
709 383 429 i 1 708 710 697
710 383 461 i 1 709 711 714
711 437 461 i 1 710 712
712 497 461 i 1 711 713
713 583 461 i 1 712
714 261 461 i 1 699 710 716
715 233 120 i 1 695 705
716 261 536 i 1 714 717
717 76 536 i 1 716 152
151 1256 871 main 1 132 152 153
152 1393 870 main 1 717 151
153 1256 810 main 1 151 229
277 373 795 main 2 258 261 275
800 1486 300 z 1 801 817 818
801 1419 300 z 1 800 802
802 1331 300 z 1 801 803
803 1262 300 z 1 802 804
804 1175 300 z 1 803 805
805 1074 300 z 1 804 806
806 1016 300 z 1 805 807
807 964 300 z 1 806 808
808 781 300 z 1 807 809
809 696 300 z 1 808 810
810 647 300 z 1 809 811
811 608 300 z 1 810 812
812 566 300 z 1 811 813
813 503 300 z 1 812 814
814 427 300 z 1 813 815
815 285 300 z 1 816 814
816 161 300 z 1 815 819 820
817 1564 300 z 1 800
818 1486 117 z 1 800 825
819 161 505 z 1 816
820 107 300 z 1 821 816
821 107 117 z 1 820 822
822 107 117 z 2 821 823 874
823 107 117 z 2 824 822
824 107 117 z 3 823 840 842
825 1486 117 z 2 818 826 872
826 1486 117 z 3 825 827 841
827 1486 296 z 3 828 826
828 1444 296 z 3 827 829
829 1360 296 z 3 830 828
830 1276 296 z 3 831 829
831 1181 296 z 3 832 830
832 1149 296 z 3 831 833
833 1057 296 z 3 834 832
834 921 296 z 3 835 833
835 792 296 z 3 836 834
836 533 296 z 3 837 835
837 406 296 z 3 838 836
838 270 296 z 3 839 837
839 164 296 z 3 840 838
840 107 296 z 3 824 839
841 1486 117 z 4 854 826 855
842 107 117 z 4 824 843 856
843 107 302 z 4 842 844
844 161 302 z 4 843 845
845 298 302 z 4 844 846
846 541 302 z 4 845 847
847 668 302 z 4 846 848
848 801 302 z 4 847 849
849 934 302 z 4 848 870
850 1184 302 z 4 851 870
851 1284 302 z 4 850 852
852 1343 302 z 4 851 853
853 1447 302 z 4 854 852
854 1486 302 z 4 841 853
855 1486 117 z 5 841 857
856 107 117 z 5 842 869
857 1486 298 z 5 855 858
858 1319 298 z 5 857 859
859 1273 298 z 5 858 860
860 1177 298 z 5 859 861
861 1040 298 z 5 860 862
862 898 298 z 5 861 863
863 786 298 z 5 862 864
864 698 298 z 5 863 865
865 637 298 z 5 864 866
866 537 298 z 5 865 867
867 409 298 z 5 866 871
868 153 298 z 5 869 871
869 107 298 z 5 856 868
870 1044 302 z 4 849 850
871 281 298 z 5 867 868
872 1440 117 z 2 825 873
873 1440 47 z 2 872 694
874 107 45 z 2 822 259